T1;IDM
T2;IDM
T3;IDM
T4;IDM
T5;IDM,CUSTOM WEB APP
T6;IDM
T7;IDM
T8;IDM
T9;IDM
T10;IDM
T11;IDM
T12;IDM
T13;IDM
T14;IDM
T15;IDM
T16;IDM
T17;IDM
T18;IDM
T19;IDM
T20;IDM
T21;IDM
T22;IDM
T23;IDM
T24;IDM
T25;IDM
T26;IDM
T27;IDM
T28;IDM
T29;IDM
T30;IDM
T31;IDM
T32;IDM
T33;IDM
T34;IDM
T35;IDM
T36;IDM
T37;IDM
T38;IDM
T39;IDM
T40;IDM
T41;IDM
T42;IDM
T43;IDM
T44;IDM
T45;IDM,CUSTOM WEB APP
T46;IDM,CUSTOM WEB APP
T47;IDM
T48;IDM,CUSTOM WEB APP
T49;IDM
T50;IDM,CUSTOM WEB APP
T51;IDM,CUSTOM WEB APP
T52;IDM,CUSTOM WEB APP
T53;IDM,CUSTOM WEB APP
T54;CUSTOM WEB APP
T55;CUSTOM WEB APP
T56;CUSTOM WEB APP,STORAGE AS SERVICE
T57;CUSTOM WEB APP,STORAGE AS SERVICE
T58;CUSTOM WEB APP
T59;CUSTOM WEB APP,STORAGE AS SERVICE
T60;CUSTOM WEB APP,STORAGE AS SERVICE
T61;CUSTOM WEB APP,STORAGE AS SERVICE
T62;CUSTOM WEB APP
T63;CUSTOM WEB APP,STORAGE AS SERVICE
T64;CUSTOM WEB APP,STORAGE AS SERVICE
T65;CUSTOM WEB APP,STORAGE AS SERVICE
T66;CUSTOM WEB APP,STORAGE AS SERVICE
T67;CUSTOM WEB APP,STORAGE AS SERVICE
T68;CUSTOM WEB APP
T69;CUSTOM WEB APP,STORAGE AS SERVICE
T70;STORAGE AS SERVICE
T71;STORAGE AS SERVICE
T72;STORAGE AS SERVICE
T73;CUSTOM WEB APP,STORAGE AS SERVICE
T74;CUSTOM WEB APP,STORAGE AS SERVICE
T75;STORAGE AS SERVICE
T76;CUSTOM WEB APP,STORAGE AS SERVICE
T77;STORAGE AS SERVICE
T78;STORAGE AS SERVICE
T79;STORAGE AS SERVICE
T80;STORAGE AS SERVICE
T81;STORAGE AS SERVICE
T82;STORAGE AS SERVICE
T83;STORAGE AS SERVICE
T84;STORAGE AS SERVICE
T85;STORAGE AS SERVICE
T86;STORAGE AS SERVICE
T87;STORAGE AS SERVICE
T88;STORAGE AS SERVICE,CUSTOM WEB APP
T89;CUSTOM WEB APP
T90;CUSTOM WEB APP
T91;CUSTOM WEB APP
T92;CUSTOM WEB APP
T93;CUSTOM WEB APP